%YAML 1.1
%TAG !u! tag:unity3d.com,2011:
--- !u!1001 &6547792375978999410
PrefabInstance:
  m_ObjectHideFlags: 0
  serializedVersion: 2
  m_Modification:
    m_TransformParent: {fileID: 0}
    m_Modifications:
    - target: {fileID: 1000010573579510, guid: 538de0cefc2f5b649b720a620df0fb9f, type: 3}
      propertyPath: m_Layer
      value: 10
      objectReference: {fileID: 0}
    - target: {fileID: 1000011506195792, guid: 538de0cefc2f5b649b720a620df0fb9f, type: 3}
      propertyPath: m_Name
      value: Water
      objectReference: {fileID: 0}
    - target: {fileID: 1000011506195792, guid: 538de0cefc2f5b649b720a620df0fb9f, type: 3}
      propertyPath: m_Layer
      value: 10
      objectReference: {fileID: 0}
    - target: {fileID: 1000012595295778, guid: 538de0cefc2f5b649b720a620df0fb9f, type: 3}
      propertyPath: m_Layer
      value: 10
      objectReference: {fileID: 0}
    - target: {fileID: 1000012853978410, guid: 538de0cefc2f5b649b720a620df0fb9f, type: 3}
      propertyPath: m_Name
      value: PlanetHome
      objectReference: {fileID: 0}
    - target: {fileID: 1000012853978410, guid: 538de0cefc2f5b649b720a620df0fb9f, type: 3}
      propertyPath: m_Layer
      value: 10
      objectReference: {fileID: 0}
    - target: {fileID: 4000011761864472, guid: 538de0cefc2f5b649b720a620df0fb9f, type: 3}
      propertyPath: m_RootOrder
      value: 0
      objectReference: {fileID: 0}
    - target: {fileID: 4000011761864472, guid: 538de0cefc2f5b649b720a620df0fb9f, type: 3}
      propertyPath: m_LocalPosition.x
      value: 0
      objectReference: {fileID: 0}
    - target: {fileID: 4000011761864472, guid: 538de0cefc2f5b649b720a620df0fb9f, type: 3}
      propertyPath: m_LocalPosition.y
      value: 0
      objectReference: {fileID: 0}
    - target: {fileID: 4000011761864472, guid: 538de0cefc2f5b649b720a620df0fb9f, type: 3}
      propertyPath: m_LocalPosition.z
      value: 1
      objectReference: {fileID: 0}
    - target: {fileID: 4000011761864472, guid: 538de0cefc2f5b649b720a620df0fb9f, type: 3}
      propertyPath: m_LocalRotation.w
      value: 1
      objectReference: {fileID: 0}
    - target: {fileID: 4000011761864472, guid: 538de0cefc2f5b649b720a620df0fb9f, type: 3}
      propertyPath: m_LocalRotation.x
      value: 0
      objectReference: {fileID: 0}
    - target: {fileID: 4000011761864472, guid: 538de0cefc2f5b649b720a620df0fb9f, type: 3}
      propertyPath: m_LocalRotation.y
      value: 0
      objectReference: {fileID: 0}
    - target: {fileID: 4000011761864472, guid: 538de0cefc2f5b649b720a620df0fb9f, type: 3}
      propertyPath: m_LocalRotation.z
      value: 0
      objectReference: {fileID: 0}
    - target: {fileID: 4000011761864472, guid: 538de0cefc2f5b649b720a620df0fb9f, type: 3}
      propertyPath: m_LocalEulerAnglesHint.x
      value: 0
      objectReference: {fileID: 0}
    - target: {fileID: 4000011761864472, guid: 538de0cefc2f5b649b720a620df0fb9f, type: 3}
      propertyPath: m_LocalEulerAnglesHint.y
      value: 0
      objectReference: {fileID: 0}
    - target: {fileID: 4000011761864472, guid: 538de0cefc2f5b649b720a620df0fb9f, type: 3}
      propertyPath: m_LocalEulerAnglesHint.z
      value: 0
      objectReference: {fileID: 0}
    - target: {fileID: 4000012977009232, guid: 538de0cefc2f5b649b720a620df0fb9f, type: 3}
      propertyPath: m_LocalScale.x
      value: 10
      objectReference: {fileID: 0}
    - target: {fileID: 4000012977009232, guid: 538de0cefc2f5b649b720a620df0fb9f, type: 3}
      propertyPath: m_LocalScale.y
      value: 10
      objectReference: {fileID: 0}
    - target: {fileID: 4000012977009232, guid: 538de0cefc2f5b649b720a620df0fb9f, type: 3}
      propertyPath: m_LocalScale.z
      value: 10
      objectReference: {fileID: 0}
    - target: {fileID: 58000013754688176, guid: 538de0cefc2f5b649b720a620df0fb9f, type: 3}
      propertyPath: m_Enabled
      value: 1
      objectReference: {fileID: 0}
    - target: {fileID: 82000012491821598, guid: 538de0cefc2f5b649b720a620df0fb9f, type: 3}
      propertyPath: m_Enabled
      value: 1
      objectReference: {fileID: 0}
    - target: {fileID: 82000012491821598, guid: 538de0cefc2f5b649b720a620df0fb9f, type: 3}
      propertyPath: MaxDistance
      value: 2.4871805
      objectReference: {fileID: 0}
    - target: {fileID: 82000012491821598, guid: 538de0cefc2f5b649b720a620df0fb9f, type: 3}
      propertyPath: MinDistance
      value: 2.4871795
      objectReference: {fileID: 0}
    - target: {fileID: 114000013646351796, guid: 538de0cefc2f5b649b720a620df0fb9f, type: 3}
      propertyPath: m_water
      value: 10
      objectReference: {fileID: 0}
    - target: {fileID: 114000013646351796, guid: 538de0cefc2f5b649b720a620df0fb9f, type: 3}
      propertyPath: m_Enabled
      value: 1
      objectReference: {fileID: 0}
    - target: {fileID: 114000013646351796, guid: 538de0cefc2f5b649b720a620df0fb9f, type: 3}
      propertyPath: IsHomePlanet
      value: 1
      objectReference: {fileID: 0}
    - target: {fileID: 212000013420034336, guid: 538de0cefc2f5b649b720a620df0fb9f, type: 3}
      propertyPath: m_Sprite
      value: 
      objectReference: {fileID: 21300000, guid: 59a583865e8885f4c9d4129ef5725288, type: 3}
    - target: {fileID: 212000013420034336, guid: 538de0cefc2f5b649b720a620df0fb9f, type: 3}
      propertyPath: m_Color.b
      value: 1
      objectReference: {fileID: 0}
    - target: {fileID: 212000013420034336, guid: 538de0cefc2f5b649b720a620df0fb9f, type: 3}
      propertyPath: m_Color.g
      value: 1
      objectReference: {fileID: 0}
    - target: {fileID: 212000013420034336, guid: 538de0cefc2f5b649b720a620df0fb9f, type: 3}
      propertyPath: m_Color.r
      value: 1
      objectReference: {fileID: 0}
    - target: {fileID: 212000013420034336, guid: 538de0cefc2f5b649b720a620df0fb9f, type: 3}
      propertyPath: m_Enabled
      value: 1
      objectReference: {fileID: 0}
    - target: {fileID: 212000013420034336, guid: 538de0cefc2f5b649b720a620df0fb9f, type: 3}
      propertyPath: m_Materials.Array.data[0]
      value: 
      objectReference: {fileID: 2100000, guid: 7668f8ce5db4b49438c7576496f06641, type: 2}
    - target: {fileID: 1115688029716049053, guid: 538de0cefc2f5b649b720a620df0fb9f, type: 3}
      propertyPath: m_Enabled
      value: 1
      objectReference: {fileID: 0}
    m_RemovedComponents:
    - {fileID: 3753150329913196214, guid: 538de0cefc2f5b649b720a620df0fb9f, type: 3}
    - {fileID: 383766023861940586, guid: 538de0cefc2f5b649b720a620df0fb9f, type: 3}
  m_SourcePrefab: {fileID: 100100000, guid: 538de0cefc2f5b649b720a620df0fb9f, type: 3}
