{
  "TurretDataId": "TurretData_1",
  "Cost": 200,
  "UpgradeCost": 500,
  "Health": 7,
  "StartupTime": 1.5,
  "RotationSpeedInDegreesPerSecond": 70.0,
  "RotationArcInDegrees": 180.0,
  "FireArcInDegrees": 30.0,
  "Max": 2
}